<svg xmlns="http://www.w3.org/2000/svg" viewBox="0 0 66.98 66.98"><metadata><?xpacket begin="﻿" id="W5M0MpCehiHzreSzNTczkc9d"?>
<x:xmpmeta xmlns:x="adobe:ns:meta/" x:xmptk="Adobe XMP Core 5.6-c148 79.163858, 2019/03/06-03:18:36        ">
   <rdf:RDF xmlns:rdf="http://www.w3.org/1999/02/22-rdf-syntax-ns#">
      <rdf:Description rdf:about=""
            xmlns:dam="http://www.day.com/dam/1.0"
            xmlns:dc="http://purl.org/dc/elements/1.1/">
         <dam:extracted>2023-04-19T18:17:49.281Z</dam:extracted>
         <dam:size>1601</dam:size>
         <dam:sha1>b95b8234098b18a69c5766080c7cd3e07a383baf</dam:sha1>
         <dc:format>image/svg+xml</dc:format>
      </rdf:Description>
   </rdf:RDF>
</x:xmpmeta>
                                                                                                    
                                                                                                    
                                                                                                    
                                                                                                    
                                                                                                    
                                                                                                    
                                                                                                    
                                                                                                    
                                                                                                    
                                                                                                    
                                                                                                    
                                                                                                    
                                                                                                    
                                                                                                    
                                                                                                    
                                                                                                    
                                                                                                    
                                                                                                    
                                                                                                    
                                                                                                    
                           
<?xpacket end="w"?></metadata>
<defs/><g id="Layer_2" data-name="Layer 2"><g id="Layer_1-2" data-name="Layer 1" opacity=".6"><path d="M67,33.33A33.49,33.49,0,1,1,33.33,0,33.49,33.49,0,0,1,67,33.33" fill="#010101"/><path d="M21.46,20a18.09,18.09,0,1,0,23.86,0,18.11,18.11,0,0,0-23.86,0M48.56,46.9a20.19,20.19,0,1,1,0-26.62,20.21,20.21,0,0,1,0,26.62" fill="#fff"/><path d="M16.14 17.3a.73.73 0 0 1 .95-.95l1.37.55 3 1.2-1.77 1.77L17.9 21.64l-1.2-3ZM50.63 49.89a.73.73 0 0 1-1 1l-1.37-.55-3-1.2 1.77-1.77 1.77-1.77 1.2 3ZM49.78 16.25a.73.73 0 0 1 .95 1l-.55 1.37-1.2 3-1.77-1.77L45.44 18l3-1.2ZM17.2 50.73a.73.73 0 0 1-1-.95l.55-1.37 1.2-3 1.77 1.77L21.54 49l-3 1.2ZM32.71 32.79l-3.84-3.85a.5.5 0 0 0-.44-.14L7.13 32.65a.49.49 0 0 0 .09 1H32.36a.5.5 0 0 0 .35-.84M32.71 34.46l-3.86 3.84a.5.5 0 0 0-.14.44L32.57 60a.49.49 0 0 0 1-.09V34.81a.5.5 0 0 0-.84-.35M34.33 34.52l3.83 3.86a.5.5 0 0 0 .44.14l21.31-3.86a.49.49 0 0 0-.09-1H34.68a.49.49 0 0 0-.35.84M34.34 32.85 38.19 29a.5.5 0 0 0 .14-.44L34.48 7.27a.49.49 0 0 0-1 .09V32.5a.5.5 0 0 0 .84.35" fill="#fff"/><path d="m32.65 34.46-3.84 3.86a.5.5 0 0 1-.44.14L7.07 34.59a.49.49 0 0 1 .09-1H32.3a.49.49 0 0 1 .35.84M32.64 32.79 28.79 29a.5.5 0 0 1-.14-.44L32.5 7.21a.49.49 0 0 1 1 .09V32.44a.49.49 0 0 1-.84.35M34.32 32.78l3.83-3.85a.5.5 0 0 1 .44-.14L59.9 32.64a.49.49 0 0 1-.09 1H34.68a.49.49 0 0 1-.35-.84M34.33 34.45l3.85 3.84a.5.5 0 0 1 .14.44L34.47 60a.49.49 0 0 1-1-.09V34.8a.5.5 0 0 1 .84-.35" fill="#010101"/><path d="M36,34.31a2.48,2.48,0,1,1-2.48-2.48A2.48,2.48,0,0,1,36,34.31" fill="#010101"/></g></g></svg>